﻿{
  "drawables": {
    "layerDefinitions": {
      "foreground": {
        "path": "data\\avatar\\img\\fg\\"
      },
      "frontFx": {
        "path": "data\\avatar\\img\\frFx\\"
      },
      "frontAccessory": {
        "path": "data\\avatar\\img\\frAcc\\"
      },
      "frontFace": {
        "path": "data\\avatar\\img\\frFace\\"
      },
      "frontHair": {
        "path": "data\\avatar\\img\\frHair\\"
      },
      "backFace": {
        "path": "data\\avatar\\img\\bkFace\\"
      },
      "frontOuter": {
        "path": "data\\avatar\\img\\frOuter\\"
      },
      "frontTop": {
        "path": "data\\avatar\\img\\frTop\\"
      },
      "frontBottom": {
        "path": "data\\avatar\\img\\frBottom\\"
      },
      "frontUnderwearTop": {
        "path": "data\\avatar\\img\\frUWTop\\"
      },
      "frontUnderwearBottom": {
        "path": "data\\avatar\\img\\frUWBottom\\"
      },
      "body": {
        "path": "data\\avatar\\img\\body\\",
        "default": "default.png"
      },
      "backUnderwearTop": {
        "path": "data\\avatar\\img\\bkUWTop\\"
      },
      "backUnderwearBottom": {
        "path": "data\\avatar\\img\\bkUWBottom\\"
      },
      "backTop": {
        "path": "data\\avatar\\img\\bkTop\\"
      },
      "backBottom": {
        "path": "data\\avatar\\img\\bkBottom\\"
      },
      "backOuter": {
        "path": "data\\avatar\\img\\bkOuter\\"
      },
      "backHair": {
        "path": "data\\avatar\\img\\bkHair\\"
      },
      "backAccessory": {
        "path": "data\\avatar\\img\\bkAcc\\"
      },
      "backFx": {
        "path": "data\\avatar\\img\\bkFx\\"
      },
      "background": {
        "path": "data\\avatar\\img\\bg\\"
      }
    },
    "sets": {
      "outfits": {
        "default": {
          "layers": {
            "frontTop": "cut_color.png",
            "frontBottom": "leggings.png",
            "frontUnderwearTop": "under_plain_white.png"
          },
          "tags": [ "casual" ]
        },

        "casual_summer": {
          "layers": {
            "frontOuter": "outer_overall.png",
            "frontTop": "tanktop_white.png",
            "frontUnderwearTop": "under_plain_white.png"
          },
          "tags": [ "casual", "summer", "weekday" ]
        },
        "casual_summer_we": {
          "layers": {
            "frontTop": "onepiece_white.png",
            "frontUnderwearTop": "under_plain_white.png",
            "frontAccessory": "acce_straw.png"
          },
          "tags": [ "casual", "summer", "weekend" ]
        },

        "pajama": {
          "layers": {
            "frontTop": "camisole.png",
            "frontBottom": "hot_white.png",
            "frontUnderwearTop": "under_plain_white.png"
          },
          "tags": [ "pajama", "sleep", "monday_night", "tuesday_night" ]
        },
        "pajama2": {
          "layers": {
            "frontTop": "tanktop_white.png",
            "frontBottom": "hot_black.png",
            "frontUnderwearTop": "under_plain_white.png"
          },
          "tags": [ "pajama", "sleep", "wednesday_night", "thursday_night" ]
        },
        "pajama3": {
          "layers": {
            "frontTop": "tanktop_pink.png",
            "frontBottom": "hot_blue.png",
            "frontUnderwearTop": "under_plain_white.png"
          },
          "tags": [ "pajama", "sleep", "friday_night", "sunday_night" ]
        },
        "pajama4": {
          "layers": {
            "frontUnderwearTop": "under_baby.png"
          },
          "tags": [ "pajama", "sleep", "saturday_night" ]
        },

        "bath": {
          "layers": {
            "frontUnderwearTop": "under_bath.png"
          },
          "tags": [ "bath" ]
        },
        "nude": {
          "layers": {
            "frontTop": "bust.png"
          },
          "tags": [ "nude" ]
        },

        "formal": {
          "layers": {
            "frontAccessory": "acce_metal.png",
            "frontTop": "yshirt_in.png",
            "frontBottom": "tight_black.png",
            "frontUnderwearTop": "under_plain_white2.png",
            "backOuter": "outer_white_back.png",
            "frontOuter": "outer_white_front.png"
          },
          "tags": [ "formal", "work" ]
        }
      },
      "expressions": {
        "normal_default": {
          "layers": {
            "frontFace": "normal.png",
            "backFace": "normal_default.png"
          },
          "tags": [ "normal" ]
        },
        "happy_default": {
          "layers": {
            "frontFace": "smile.png",
            "backFace": "smile_default.png"
          },
          "tags": [ "happy" ]
        },
        "shy_default": {
          "layers": {
            "frontFace": "shy.png",
            "backFace": "shy_default.png"
          },
          "tags": [ "shy" ]
        },

        "normal_blonde": {
          "layers": {
            "frontFace": "normal.png",
            "backFace": "normal_blonde.png"
          },
          "tags": [ "normal", "blonde" ]
        },
        "happy_blonde": {
          "layers": {
            "frontFace": "smile.png",
            "backFace": "smile_blonde.png"
          },
          "tags": [ "happy", "blonde" ]
        },
        "shy_blonde": {
          "layers": {
            "frontFace": "shy.png",
            "backFace": "shy_blonde.png"
          },
          "tags": [ "shy", "blonde" ]
        },

        "normal_black": {
          "layers": {
            "frontFace": "normal.png",
            "backFace": "normal_black.png"
          },
          "tags": [ "normal", "blackhair" ]
        },
        "happy_black": {
          "layers": {
            "frontFace": "smile.png",
            "backFace": "smile_black.png"
          },
          "tags": [ "happy", "blackhair" ]
        },
        "shy_black": {
          "layers": {
            "frontFace": "shy.png",
            "backFace": "shy_black.png"
          },
          "tags": [ "shy", "blackhair" ]
        },

        "sleep": {
          "layers": {
            "frontFace": "face_sleep.png"
          },
          "tags": [ "sleep", "blackhair", "blonde", "whitehair" ]
        }
      },
      "hairs": {
        "default": {
          "layers": {
            "frontHair": "default.png",
            "backHair": "default.png"
          },
          "tags": [ "winter" ]
        },
        "blonde": {
          "layers": {
            "frontHair": "blonde.png",
            "backHair": "blonde.png"
          },
          "tags": [ "blonde", "winter" ]
        },
        "black": {
          "layers": {
            "frontHair": "black.png",
            "backHair": "black.png"
          },
          "tags": [ "blackhair", "winter" ]
        },

        "semi_default": {
          "layers": {
            "frontHair": "semi_default.png",
            "backHair": "semi_default.png"
          },
          "tags": [ "fall" ]
        },
        "semi_blonde": {
          "layers": {
            "frontHair": "semi_blonde.png",
            "backHair": "semi_blonde.png"
          },
          "tags": [ "blonde", "fall" ]
        },
        "semi_black": {
          "layers": {
            "frontHair": "semi_black.png",
            "backHair": "semi_black.png"
          },
          "tags": [ "blackhair", "fall" ]
        },

        "twin_default": {
          "layers": {
            "frontHair": "twin_default.png",
            "backHair": "twin_default.png"
          },
          "tags": [ "spring" ]
        },
        "twin_blonde": {
          "layers": {
            "frontHair": "twin_blonde.png",
            "backHair": "twin_blonde.png"
          },
          "tags": [ "blonde", "spring" ]
        },
        "twin_black": {
          "layers": {
            "frontHair": "twin_black.png",
            "backHair": "twin_black.png"
          },
          "tags": [ "blackhair", "spring" ]
        },

        "short_default": {
          "layers": {
            "frontHair": "short_default.png"
          },
          "tags": [ "summer" ]
        },
        "short_blonde": {
          "layers": {
            "frontHair": "short_blonde.png"
          },
          "tags": [ "blonde", "summer" ]
        },
        "short_black": {
          "layers": {
            "frontHair": "short_black.png"
          },
          "tags": [ "blackhair", "summer" ]
        }
      }
    }
  },

  "regions": {
    "face": [
      {
        "type": "radius",
        "x": 43.66,
        "y": 21.04,
        "r": 10
      }
    ],
    "boobs": [
      {
        "type": "radius",
        "x": 30,
        "y": 46,
        "r": 5
      },
      {
        "type": "radius",
        "x": 56.34,
        "y": 47,
        "r": 5
      }
    ],
    "pussy": [
      {
        "type": "radius",
        "x": 47.69,
        "y": 72.62,
        "r": 5
      }
    ]
  },

  "psyches": {
    "normal": {
      "emotion": {
        "pleasure": 0,
        "alertness": 0
      },
      "tags": [ "normal" ]
    },
    "pleasure": {
      "emotion": {
        "pleasure": 49.384417029757,
        "alertness": 7.8217232520115
      },
      "tags": [ "pleasure" ]
    },
    "joy": {
      "emotion": {
        "pleasure": 44.5503262094185,
        "alertness": 22.6995249869775
      },
      "tags": [ "happy", "joy" ]
    },
    "pride": {
      "emotion": {
        "pleasure": 35.3553390593275,
        "alertness": 35.3553390593275
      },
      "tags": [ "pride", "smug" ]
    },
    "amusement": {
      "emotion": {
        "pleasure": 22.6995249869775,
        "alertness": 44.5503262094185
      },
      "tags": [ "amused", "interested" ]
    },
    "interest": {
      "emotion": {
        "pleasure": 7.8217232520115,
        "alertness": 49.384417029757
      },
      "tags": [ "interested" ]
    },
    "anger": {
      "emotion": {
        "pleasure": -7.8217232520115,
        "alertness": 49.384417029757
      },
      "tags": [ "angry" ]
    },
    "hate": {
      "emotion": {
        "pleasure": -22.6995249869775,
        "alertness": 44.5503262094185
      },
      "tags": [ "hate" ]
    },
    "contempt": {
      "emotion": {
        "pleasure": -35.3553390593275,
        "alertness": 35.3553390593275
      },
      "tags": [ "hate", "contempt" ]
    },
    "disgust": {
      "emotion": {
        "pleasure": -44.5503262094185,
        "alertness": 22.6995249869775
      },
      "tags": [ "disgusted" ]
    },
    "fear": {
      "emotion": {
        "pleasure": -49.384417029757,
        "alertness": 7.8217232520115
      },
      "tags": [ "fear", "scared" ]
    },
    "disappointment": {
      "emotion": {
        "pleasure": -49.384417029757,
        "alertness": -7.8217232520115
      },
      "tags": [ "disappointed" ]
    },
    "shame": {
      "emotion": {
        "pleasure": -44.5503262094185,
        "alertness": -22.6995249869775
      },
      "tags": [ "shy", "ashamed" ]
    },
    "regret": {
      "emotion": {
        "pleasure": -35.3553390593275,
        "alertness": -35.3553390593275
      },
      "tags": [ "regret", "sad" ]
    },
    "guilt": {
      "emotion": {
        "pleasure": -22.6995249869775,
        "alertness": -44.5503262094185
      },
      "tags": [ "sad", "guilt" ]
    },
    "sadness": {
      "emotion": {
        "pleasure": -7.8217232520115,
        "alertness": -49.384417029757
      },
      "tags": [ "sad" ]
    },
    "compassion": {
      "emotion": {
        "pleasure": 7.8217232520115,
        "alertness": -49.384417029757
      },
      "tags": [ "compassion", "empathy" ]
    },
    "relief": {
      "emotion": {
        "pleasure": 22.6995249869775,
        "alertness": -44.5503262094185
      },
      "tags": [ "relieved" ]
    },
    "admiration": {
      "emotion": {
        "pleasure": 35.3553390593275,
        "alertness": -35.3553390593275
      },
      "tags": [ "admire", "like", "blush" ]
    },
    "love": {
      "emotion": {
        "pleasure": 44.5503262094185,
        "alertness": -22.6995249869775
      },
      "tags": [ "like", "love", "blush" ]
    },
    "contentment": {
      "emotion": {
        "pleasure": 49.384417029757,
        "alertness": -7.8217232520115
      },
      "tags": [ "content" ]
    }
  },

  "conditions": {
    "bath": {
      "timeSlots": [
        {
          "from": "06:55",
          "to": "07:00"
        },
        {
          "from": "17:30",
          "to": "17:35"
        }
      ],
      "tags": [ "bath", "bath", "bath", "bath", "bath" ]
    },
    "athome": {
      "timeSlots": [
        {
          "from": "07:00",
          "to": "17:00",
          "dow": [],
          "matchAny": [ "holiday", "dayoff" ],
          "notMatchAny": [],
          "matchAll": [],
          "notMatchAll": []
        },
        {
          "from": "17:00",
          "to": "23:00"
        }
      ],
      "matchAny": [],
      "notMatchAny": [],
      "matchAll": [],
      "notMatchAll": [],
      "tags": [ "casual" ]
    },
    "atwork": {
      "timeSlots": [
        {
          "from": "07:00",
          "to": "17:00"
        }
      ],
      "notMatchAll": [ "holiday", "dayoff" ],
      "tags": [ "formal", "work", "work", "work", "work", "work" ]
    },
    "sleeptime": {
      "timeSlots": [
        {
          "from": "23:00",
          "to": "05:00"
        }
      ],
      "tags": [ "sleep", "pajama" ]
    },
    "wakeup": {
      "timeSlots": [
        {
          "from": "05:00",
          "to": "07:00"
        }
      ],
      "tags": [ "pajama" ]
    },
    "fullmoon": {
      "matchAll": [ "fullmoon" ],
      "tags": [ "blonde" ]
    },
    "newmoon": {
      "matchAll": [ "newmoon" ],
      "tags": [ "blackhair" ]
    },
    "halfmoon": {
      "matchAll": [ "halfmoon" ],
      "tags": [ "whitehair" ]
    }
  }
}